<?xml version='1.0' encoding='UTF-8'?>
<glyph name="cedilla" format="2">
  <advance width="306"/>
  <unicode hex="00B8"/>
  <outline>
    <component base="uni0327"/>
  </outline>
  <lib>
    <dict>
      <key>com.schriftgestaltung.Glyphs.lastChange</key>
      <string>2021-08-24 14:43:38 +0000</string>
      <key>public.markColor</key>
      <string>0.67,0.95,0.38,1</string>
    </dict>
  </lib>
</glyph>
