<?xml version='1.0' encoding='UTF-8'?>
<glyph name="gravecomb" format="2">
  <advance width="268"/>
  <unicode hex="0300"/>
  <anchor x="129" y="700" name="_top"/>
  <anchor x="129" y="930" name="top"/>
  <outline>
    <component base="acutecomb" xScale="-1" xOffset="268"/>
  </outline>
  <lib>
    <dict>
      <key>com.schriftgestaltung.Glyphs.lastChange</key>
      <string>2021-09-08 12:04:17 +0000</string>
      <key>public.markColor</key>
      <string>0.67,0.95,0.38,1</string>
    </dict>
  </lib>
</glyph>
