<?xml version='1.0' encoding='UTF-8'?>
<glyph name="quotedblleft" format="2">
  <advance width="356"/>
  <unicode hex="201C"/>
  <outline>
    <component base="quotedblright" xScale="-1" yScale="-1" xOffset="350" yOffset="1411"/>
  </outline>
  <lib>
    <dict>
      <key>com.schriftgestaltung.Glyphs.lastChange</key>
      <string>2020-07-02 10:03:05 +0000</string>
      <key>public.markColor</key>
      <string>0.67,0.95,0.38,1</string>
    </dict>
  </lib>
</glyph>
